<svg width="71" height="72" viewBox="0 0 71 72" fill="none" xmlns="http://www.w3.org/2000/svg">
<mask id="mask0" mask-type="alpha" maskUnits="userSpaceOnUse" x="0" y="0" width="71" height="72">
<path d="M0 10C0 4.47715 4.47715 0 10 0H61C66.5228 0 71 4.47715 71 10V72H0V10Z" fill="#2C96F9"/>
</mask>
<g mask="url(#mask0)">
<path d="M85.4086 14.7065L82.6162 17.4988C82.7388 17.24 59.7596 -5.73916 59.5008 -5.61657L62.2932 -8.40895C64.4199 -10.5305 67.8625 -10.5305 69.9892 -8.40895L85.4086 7.01041C87.5302 9.13713 87.5302 12.5798 85.4086 14.7065Z" fill="#A6D3FE"/>
<path d="M82.6162 17.4989L82.6026 17.5126L36.7396 63.3756C36.7396 63.2394 27.2319 61.0055 21.6199 55.3799C15.7627 49.5227 13.774 40.2602 13.6241 40.2602L59.4872 -5.60285L59.5008 -5.61647C61.723 -6.74747 64.4161 -6.36041 66.2298 -4.64936C67.9419 -2.83712 68.3342 -0.145965 67.2105 2.07959C67.2241 2.07959 67.2241 2.06597 67.2377 2.06597C69.4584 0.954599 72.1372 1.35206 73.9394 3.06032C75.6477 4.86261 76.0452 7.54138 74.9338 9.76202L74.9202 9.78927C77.1323 8.58972 79.87 8.98865 81.6478 10.7696C83.4256 12.5506 83.8197 15.289 82.6162 17.4989V17.4989Z" fill="#CDE6FD"/>
<path d="M36.7396 63.3752L36.726 63.3889L36.0585 64.0563C35.2432 64.8725 34.1885 65.407 33.0482 65.5819L18.596 67.8158C18.4053 65.5819 13.9238 65.3912 12.0849 63.5523C10.2461 61.7134 11.4175 58.5942 9.1836 58.4035L11.4175 43.9512C11.5924 42.8109 12.1269 41.7562 12.9431 40.9409L13.6242 40.2598C15.8463 39.1288 18.5394 39.5159 20.3531 41.2269C22.0653 43.0392 22.4575 45.7303 21.3338 47.9559C23.5594 46.8322 26.2506 47.2244 28.0628 48.9366C29.775 50.7488 30.1672 53.44 29.0435 55.6656C31.2556 54.466 33.9933 54.8649 35.7711 56.6459C37.5489 58.4269 37.943 61.1653 36.7396 63.3752V63.3752Z" fill="#6EB7FB"/>
<path d="M18.5959 67.8163L11.1859 68.9605C10.314 69.1104 9.4235 68.8276 8.79789 68.202C8.17229 67.5764 7.88945 66.6859 8.03938 65.814L9.18357 58.4039C11.5968 58.6413 13.8491 59.7216 15.5447 61.4551C17.2782 63.1507 18.3586 65.4031 18.5959 67.8163V67.8163Z" fill="#1E65A7"/>
</g>
</svg>
